('C:\\Sites\\client-server-process\\build\\main\\main.pkg',
 {'BINARY': 1,
  'DATA': 1,
  'EXECUTABLE': 1,
  'EXTENSION': 1,
  'PYMODULE': 1,
  'PYSOURCE': 1,
  'PYZ': 0,
  'SPLASH': 1},
 [('PYZ-00.pyz',
   'C:\\Sites\\client-server-process\\build\\main\\PYZ-00.pyz',
   'PYZ'),
  ('struct',
   'C:\\Sites\\client-server-process\\build\\main\\localpycs\\struct.pyc',
   'PYMODULE'),
  ('pyimod01_archive',
   'C:\\Sites\\client-server-process\\build\\main\\localpycs\\pyimod01_archive.pyc',
   'PYMODULE'),
  ('pyimod02_importers',
   'C:\\Sites\\client-server-process\\build\\main\\localpycs\\pyimod02_importers.pyc',
   'PYMODULE'),
  ('pyimod03_ctypes',
   'C:\\Sites\\client-server-process\\build\\main\\localpycs\\pyimod03_ctypes.pyc',
   'PYMODULE'),
  ('pyiboot01_bootstrap',
   'C:\\Sites\\client-server-process\\venv\\lib\\site-packages\\PyInstaller\\loader\\pyiboot01_bootstrap.py',
   'PYSOURCE'),
  ('pyi_rth_inspect',
   'C:\\Sites\\client-server-process\\venv\\Lib\\site-packages\\PyInstaller\\hooks\\rthooks\\pyi_rth_inspect.py',
   'PYSOURCE'),
  ('pyi_rth_subprocess',
   'C:\\Sites\\client-server-process\\venv\\Lib\\site-packages\\PyInstaller\\hooks\\rthooks\\pyi_rth_subprocess.py',
   'PYSOURCE'),
  ('pyi_rth_multiprocessing',
   'C:\\Sites\\client-server-process\\venv\\Lib\\site-packages\\PyInstaller\\hooks\\rthooks\\pyi_rth_multiprocessing.py',
   'PYSOURCE'),
  ('pyi_rth_pkgutil',
   'C:\\Sites\\client-server-process\\venv\\Lib\\site-packages\\PyInstaller\\hooks\\rthooks\\pyi_rth_pkgutil.py',
   'PYSOURCE'),
  ('main', 'C:\\Sites\\client-server-process\\main.py', 'PYSOURCE'),
  ('api-ms-win-crt-math-l1-1-0.dll',
   'C:\\Program Files\\PowerShell\\7\\api-ms-win-crt-math-l1-1-0.dll',
   'BINARY'),
  ('python310.dll',
   'C:\\Users\\danie\\AppData\\Local\\Programs\\Python\\Python310\\python310.dll',
   'BINARY'),
  ('VCRUNTIME140.dll',
   'C:\\Users\\danie\\AppData\\Local\\Programs\\Python\\Python310\\VCRUNTIME140.dll',
   'BINARY'),
  ('api-ms-win-crt-runtime-l1-1-0.dll',
   'C:\\Program Files\\PowerShell\\7\\api-ms-win-crt-runtime-l1-1-0.dll',
   'BINARY'),
  ('api-ms-win-crt-stdio-l1-1-0.dll',
   'C:\\Program Files\\PowerShell\\7\\api-ms-win-crt-stdio-l1-1-0.dll',
   'BINARY'),
  ('api-ms-win-crt-heap-l1-1-0.dll',
   'C:\\Program Files\\PowerShell\\7\\api-ms-win-crt-heap-l1-1-0.dll',
   'BINARY'),
  ('api-ms-win-crt-locale-l1-1-0.dll',
   'C:\\Program Files\\PowerShell\\7\\api-ms-win-crt-locale-l1-1-0.dll',
   'BINARY'),
  ('ucrtbase.dll', 'C:\\Program Files\\PowerShell\\7\\ucrtbase.dll', 'BINARY'),
  ('api-ms-win-crt-convert-l1-1-0.dll',
   'C:\\Program Files\\PowerShell\\7\\api-ms-win-crt-convert-l1-1-0.dll',
   'BINARY'),
  ('api-ms-win-crt-filesystem-l1-1-0.dll',
   'C:\\Program Files\\PowerShell\\7\\api-ms-win-crt-filesystem-l1-1-0.dll',
   'BINARY'),
  ('api-ms-win-crt-time-l1-1-0.dll',
   'C:\\Program Files\\PowerShell\\7\\api-ms-win-crt-time-l1-1-0.dll',
   'BINARY'),
  ('api-ms-win-crt-process-l1-1-0.dll',
   'C:\\Program Files\\PowerShell\\7\\api-ms-win-crt-process-l1-1-0.dll',
   'BINARY'),
  ('api-ms-win-crt-conio-l1-1-0.dll',
   'C:\\Program Files\\PowerShell\\7\\api-ms-win-crt-conio-l1-1-0.dll',
   'BINARY'),
  ('api-ms-win-crt-environment-l1-1-0.dll',
   'C:\\Program Files\\PowerShell\\7\\api-ms-win-crt-environment-l1-1-0.dll',
   'BINARY'),
  ('api-ms-win-crt-string-l1-1-0.dll',
   'C:\\Program Files\\PowerShell\\7\\api-ms-win-crt-string-l1-1-0.dll',
   'BINARY'),
  ('api-ms-win-core-timezone-l1-1-0.dll',
   'C:\\Program Files\\PowerShell\\7\\api-ms-win-core-timezone-l1-1-0.dll',
   'BINARY'),
  ('api-ms-win-core-memory-l1-1-0.dll',
   'C:\\Program Files\\PowerShell\\7\\api-ms-win-core-memory-l1-1-0.dll',
   'BINARY'),
  ('api-ms-win-core-sysinfo-l1-1-0.dll',
   'C:\\Program Files\\PowerShell\\7\\api-ms-win-core-sysinfo-l1-1-0.dll',
   'BINARY'),
  ('api-ms-win-core-localization-l1-2-0.dll',
   'C:\\Program Files\\PowerShell\\7\\api-ms-win-core-localization-l1-2-0.dll',
   'BINARY'),
  ('api-ms-win-core-heap-l1-1-0.dll',
   'C:\\Program Files\\PowerShell\\7\\api-ms-win-core-heap-l1-1-0.dll',
   'BINARY'),
  ('api-ms-win-core-rtlsupport-l1-1-0.dll',
   'C:\\Program Files\\PowerShell\\7\\api-ms-win-core-rtlsupport-l1-1-0.dll',
   'BINARY'),
  ('api-ms-win-core-libraryloader-l1-1-0.dll',
   'C:\\Program Files\\PowerShell\\7\\api-ms-win-core-libraryloader-l1-1-0.dll',
   'BINARY'),
  ('api-ms-win-core-namedpipe-l1-1-0.dll',
   'C:\\Program Files\\PowerShell\\7\\api-ms-win-core-namedpipe-l1-1-0.dll',
   'BINARY'),
  ('api-ms-win-core-synch-l1-2-0.dll',
   'C:\\Program Files\\PowerShell\\7\\api-ms-win-core-synch-l1-2-0.dll',
   'BINARY'),
  ('api-ms-win-core-errorhandling-l1-1-0.dll',
   'C:\\Program Files\\PowerShell\\7\\api-ms-win-core-errorhandling-l1-1-0.dll',
   'BINARY'),
  ('api-ms-win-core-string-l1-1-0.dll',
   'C:\\Program Files\\PowerShell\\7\\api-ms-win-core-string-l1-1-0.dll',
   'BINARY'),
  ('api-ms-win-core-file-l1-2-0.dll',
   'C:\\Program Files\\PowerShell\\7\\api-ms-win-core-file-l1-2-0.dll',
   'BINARY'),
  ('api-ms-win-core-file-l1-1-0.dll',
   'C:\\Program Files\\PowerShell\\7\\api-ms-win-core-file-l1-1-0.dll',
   'BINARY'),
  ('api-ms-win-core-processenvironment-l1-1-0.dll',
   'C:\\Program '
   'Files\\PowerShell\\7\\api-ms-win-core-processenvironment-l1-1-0.dll',
   'BINARY'),
  ('api-ms-win-core-file-l2-1-0.dll',
   'C:\\Program Files\\PowerShell\\7\\api-ms-win-core-file-l2-1-0.dll',
   'BINARY'),
  ('api-ms-win-core-debug-l1-1-0.dll',
   'C:\\Program Files\\PowerShell\\7\\api-ms-win-core-debug-l1-1-0.dll',
   'BINARY'),
  ('api-ms-win-core-processthreads-l1-1-0.dll',
   'C:\\Program '
   'Files\\PowerShell\\7\\api-ms-win-core-processthreads-l1-1-0.dll',
   'BINARY'),
  ('api-ms-win-core-fibers-l1-1-0.dll',
   'C:\\Program Files\\PowerShell\\7\\api-ms-win-core-fibers-l1-1-0.dll',
   'BINARY'),
  ('api-ms-win-core-console-l1-1-0.dll',
   'C:\\Program Files\\PowerShell\\7\\api-ms-win-core-console-l1-1-0.dll',
   'BINARY'),
  ('api-ms-win-core-profile-l1-1-0.dll',
   'C:\\Program Files\\PowerShell\\7\\api-ms-win-core-profile-l1-1-0.dll',
   'BINARY'),
  ('api-ms-win-core-interlocked-l1-1-0.dll',
   'C:\\Program Files\\PowerShell\\7\\api-ms-win-core-interlocked-l1-1-0.dll',
   'BINARY'),
  ('api-ms-win-core-handle-l1-1-0.dll',
   'C:\\Program Files\\PowerShell\\7\\api-ms-win-core-handle-l1-1-0.dll',
   'BINARY'),
  ('api-ms-win-core-synch-l1-1-0.dll',
   'C:\\Program Files\\PowerShell\\7\\api-ms-win-core-synch-l1-1-0.dll',
   'BINARY'),
  ('api-ms-win-core-util-l1-1-0.dll',
   'C:\\Program Files\\PowerShell\\7\\api-ms-win-core-util-l1-1-0.dll',
   'BINARY'),
  ('api-ms-win-core-datetime-l1-1-0.dll',
   'C:\\Program Files\\PowerShell\\7\\api-ms-win-core-datetime-l1-1-0.dll',
   'BINARY'),
  ('api-ms-win-core-processthreads-l1-1-1.dll',
   'C:\\Program '
   'Files\\PowerShell\\7\\api-ms-win-core-processthreads-l1-1-1.dll',
   'BINARY'),
  ('_decimal',
   'C:\\Users\\danie\\AppData\\Local\\Programs\\Python\\Python310\\DLLs\\_decimal.pyd',
   'EXTENSION'),
  ('_hashlib',
   'C:\\Users\\danie\\AppData\\Local\\Programs\\Python\\Python310\\DLLs\\_hashlib.pyd',
   'EXTENSION'),
  ('_lzma',
   'C:\\Users\\danie\\AppData\\Local\\Programs\\Python\\Python310\\DLLs\\_lzma.pyd',
   'EXTENSION'),
  ('_bz2',
   'C:\\Users\\danie\\AppData\\Local\\Programs\\Python\\Python310\\DLLs\\_bz2.pyd',
   'EXTENSION'),
  ('_multiprocessing',
   'C:\\Users\\danie\\AppData\\Local\\Programs\\Python\\Python310\\DLLs\\_multiprocessing.pyd',
   'EXTENSION'),
  ('pyexpat',
   'C:\\Users\\danie\\AppData\\Local\\Programs\\Python\\Python310\\DLLs\\pyexpat.pyd',
   'EXTENSION'),
  ('_ssl',
   'C:\\Users\\danie\\AppData\\Local\\Programs\\Python\\Python310\\DLLs\\_ssl.pyd',
   'EXTENSION'),
  ('select',
   'C:\\Users\\danie\\AppData\\Local\\Programs\\Python\\Python310\\DLLs\\select.pyd',
   'EXTENSION'),
  ('_ctypes',
   'C:\\Users\\danie\\AppData\\Local\\Programs\\Python\\Python310\\DLLs\\_ctypes.pyd',
   'EXTENSION'),
  ('_queue',
   'C:\\Users\\danie\\AppData\\Local\\Programs\\Python\\Python310\\DLLs\\_queue.pyd',
   'EXTENSION'),
  ('unicodedata',
   'C:\\Users\\danie\\AppData\\Local\\Programs\\Python\\Python310\\DLLs\\unicodedata.pyd',
   'EXTENSION'),
  ('_socket',
   'C:\\Users\\danie\\AppData\\Local\\Programs\\Python\\Python310\\DLLs\\_socket.pyd',
   'EXTENSION'),
  ('_elementtree',
   'C:\\Users\\danie\\AppData\\Local\\Programs\\Python\\Python310\\DLLs\\_elementtree.pyd',
   'EXTENSION'),
  ('psutil._psutil_windows',
   'C:\\Sites\\client-server-process\\venv\\lib\\site-packages\\psutil\\_psutil_windows.cp310-win_amd64.pyd',
   'EXTENSION'),
  ('libcrypto-1_1.dll',
   'C:\\Users\\danie\\AppData\\Local\\Programs\\Python\\Python310\\DLLs\\libcrypto-1_1.dll',
   'BINARY'),
  ('api-ms-win-crt-utility-l1-1-0.dll',
   'C:\\Program Files\\PowerShell\\7\\api-ms-win-crt-utility-l1-1-0.dll',
   'BINARY'),
  ('libssl-1_1.dll',
   'C:\\Users\\danie\\AppData\\Local\\Programs\\Python\\Python310\\DLLs\\libssl-1_1.dll',
   'BINARY'),
  ('libffi-7.dll',
   'C:\\Users\\danie\\AppData\\Local\\Programs\\Python\\Python310\\DLLs\\libffi-7.dll',
   'BINARY'),
  ('base_library.zip',
   'C:\\Sites\\client-server-process\\build\\main\\base_library.zip',
   'DATA'),
  ('certifi\\cacert.pem',
   'C:\\Sites\\client-server-process\\venv\\lib\\site-packages\\certifi\\cacert.pem',
   'DATA'),
  ('certifi\\py.typed',
   'C:\\Sites\\client-server-process\\venv\\lib\\site-packages\\certifi\\py.typed',
   'DATA')],
 False,
 False,
 False,
 [],
 None,
 None,
 None)
